%YAML 1.1
%TAG !u! tag:unity3d.com,2011:
--- !u!74 &7400000
AnimationClip:
  m_ObjectHideFlags: 0
  m_PrefabParentObject: {fileID: 0}
  m_PrefabInternal: {fileID: 0}
  m_Name: LogoAnimation
  serializedVersion: 4
  m_AnimationType: 2
  m_Compressed: 0
  m_UseHighQualityCurve: 1
  m_RotationCurves: []
  m_CompressedRotationCurves: []
  m_PositionCurves: []
  m_ScaleCurves: []
  m_FloatCurves: []
  m_PPtrCurves:
  - curve:
    - time: 0
      value: {fileID: 21300000, guid: 263617de33084724a9d87e31d7dab4b9, type: 3}
    - time: .0833333358
      value: {fileID: 21300000, guid: ff344e8c0bd33c54fa892929e1958e48, type: 3}
    - time: .166666672
      value: {fileID: 21300000, guid: e8dfad5d45e3f7941838ac16246fe023, type: 3}
    - time: .25
      value: {fileID: 21300000, guid: dec10e3c3ae1c5c45994b0796ebb4ef7, type: 3}
    - time: .333333343
      value: {fileID: 21300000, guid: 926fcc038d3797f46b7c8702d6b0616b, type: 3}
    attribute: m_Sprite
    path: 
    classID: 212
    script: {fileID: 0}
  m_SampleRate: 12
  m_WrapMode: 0
  m_Bounds:
    m_Center: {x: 0, y: 0, z: 0}
    m_Extent: {x: 0, y: 0, z: 0}
  m_ClipBindingConstant:
    genericBindings:
    - path: 0
      attribute: 0
      script: {fileID: 0}
      classID: 212
      customType: 23
      isPPtrCurve: 1
    pptrCurveMapping:
    - {fileID: 21300000, guid: 263617de33084724a9d87e31d7dab4b9, type: 3}
    - {fileID: 21300000, guid: ff344e8c0bd33c54fa892929e1958e48, type: 3}
    - {fileID: 21300000, guid: e8dfad5d45e3f7941838ac16246fe023, type: 3}
    - {fileID: 21300000, guid: dec10e3c3ae1c5c45994b0796ebb4ef7, type: 3}
    - {fileID: 21300000, guid: 926fcc038d3797f46b7c8702d6b0616b, type: 3}
  m_AnimationClipSettings:
    serializedVersion: 2
    m_StartTime: 0
    m_StopTime: .416666687
    m_OrientationOffsetY: 0
    m_Level: 0
    m_CycleOffset: 0
    m_LoopTime: 1
    m_LoopBlend: 0
    m_LoopBlendOrientation: 0
    m_LoopBlendPositionY: 0
    m_LoopBlendPositionXZ: 0
    m_KeepOriginalOrientation: 0
    m_KeepOriginalPositionY: 1
    m_KeepOriginalPositionXZ: 0
    m_HeightFromFeet: 0
    m_Mirror: 0
  m_EditorCurves: []
  m_EulerEditorCurves: []
  m_Events: []
